module book-product

go 1.21.3

require gorm.io/driver/postgres v1.5.4

require (
	github.com/go-openapi/swag v0.22.7 // indirect
	github.com/gofiber/swagger v0.1.14 // indirect
	github.com/golang-jwt/jwt/v5 v5.2.0 // indirect
	github.com/swaggo/files/v2 v2.0.0 // indirect
	github.com/swaggo/swag v1.16.2 // indirect
)

require (
	github.com/KyleBanks/depth v1.2.1 // indirect
	github.com/PuerkitoBio/purell v1.2.1 // indirect
	github.com/PuerkitoBio/urlesc v0.0.0-20170810143723-de5bf2ad4578 // indirect
	github.com/andybalholm/brotli v1.0.6 // indirect
	github.com/cpuguy83/go-md2man/v2 v2.0.3 // indirect
	github.com/go-openapi/jsonpointer v0.20.2 // indirect
	github.com/go-openapi/jsonreference v0.20.4 // indirect
	github.com/go-openapi/spec v0.20.13 // indirect22.7 // indirect
	github.com/gofiber/fiber/v2 v2.51.0 // indirectrect
	github.com/google/uuid v1.5.0 // indirect
	github.com/jackc/pgpassfile v1.0.0 // indirect
	github.com/jackc/pgservicefile v0.0.0-20221227161230-091c0ba34f0a // indirect
	github.com/jackc/pgx/v5 v5.4.3 // indirect
	github.com/jinzhu/inflection v1.0.0 // indirect
	github.com/jinzhu/now v1.1.5 // indirect
	github.com/joho/godotenv v1.5.1 // indirect
	github.com/josharian/intern v1.0.0 // indirect
	github.com/klauspost/compress v1.17.4 // indirect
	github.com/mailru/easyjson v0.7.7 // indirect
	github.com/mattn/go-colorable v0.1.13 // indirect
	github.com/mattn/go-isatty v0.0.20 // indirect
	github.com/mattn/go-runewidth v0.0.15 // indirect
	github.com/rivo/uniseg v0.4.4 // indirect
	github.com/russross/blackfriday/v2 v2.1.0 // indirect
	github.com/shurcooL/sanitized_anchor_name v1.0.0 // indirectdirect.2 // indirect
	github.com/urfave/cli/v2 v2.27.1 // indirect
	github.com/valyala/bytebufferpool v1.0.0 // indirect
	github.com/valyala/fasthttp v1.51.0 // indirect
	github.com/valyala/tcplisten v1.0.0 // indirect
	github.com/xrash/smetrics v0.0.0-20231213231151-1d8dd44e695e // indirect
	golang.org/x/crypto v0.16.0 // indirect
	golang.org/x/net v0.19.0 // indirect
	golang.org/x/sys v0.15.0 // indirect
	golang.org/x/text v0.14.0 // indirect
	golang.org/x/tools v0.16.1 // indirect
	gopkg.in/yaml.v2 v2.4.0 // indirect
	gopkg.in/yaml.v3 v3.0.1 // indirect
	gorm.io/gorm v1.25.5 // indirect
	sigs.k8s.io/yaml v1.4.0 // indirect
)
